<svg width="17" height="17" viewBox="0 0 17 17" fill="none" xmlns="http://www.w3.org/2000/svg">
<rect width="17" height="17" rx="4" fill="#6574FF"/>
<path fill-rule="evenodd" clip-rule="evenodd" d="M7.16667 12.3333L3 8.32692L4.16667 7.20513L7.16667 10.0897L13.5 4L14.6667 5.12179L7.16667 12.3333Z" fill="white"/>
</svg>
