<svg width="14" height="10" viewBox="0 0 14 10" fill="none" xmlns="http://www.w3.org/2000/svg">
<path fill-rule="evenodd" clip-rule="evenodd" d="M4.91071 10L0 5.19231L1.375 3.84615L4.91071 7.30769L12.375 0L13.75 1.34615L4.91071 10Z" fill="#6574FF"/>
</svg>
