<svg width="22" height="22" viewBox="0 0 22 22" fill="none"
    xmlns="http://www.w3.org/2000/svg">
    <circle cx="9.5" cy="9.5" r="9.5" fill="#F8F9FF"/>
    <circle cx="4.44445" cy="9.44445" r="1.44445" fill="#9D9DBA"/>
    <circle cx="9.50012" cy="9.44445" r="1.44445" fill="#9D9DBA"/>
    <circle cx="14.5553" cy="9.44445" r="1.44445" fill="#9D9DBA"/>
</svg>
