<svg width="34" height="33" viewBox="0 0 34 33" fill="none" xmlns="http://www.w3.org/2000/svg">
<circle cx="16.8115" cy="16.5004" r="16.4672" fill="#ABA9FF"/>
<path d="M14.3185 20.5605H15.1705V16.6965H19.3945V15.9045H15.1705V12.9885H19.9945V12.1965H14.3185V20.5605Z" fill="white"/>
</svg>
