<svg width="18" height="18" viewBox="0 0 18 18" fill="none" xmlns="http://www.w3.org/2000/svg">
<mask id="path-1-inside-1" fill="white">
<rect width="18" height="7" rx="1"/>
</mask>
<rect width="18" height="7" rx="1" stroke="#ABA9FF" stroke-width="4" mask="url(#path-1-inside-1)"/>
<mask id="path-2-inside-2" fill="white">
<rect y="9" width="18" height="7" rx="1"/>
</mask>
<rect y="9" width="18" height="7" rx="1" stroke="#ABA9FF" stroke-width="4" mask="url(#path-2-inside-2)"/>
</svg>