<svg width="34" height="33" viewBox="0 0 34 33" fill="none" xmlns="http://www.w3.org/2000/svg">
<circle cx="16.4672" cy="16.5004" r="15.9672" fill="#EEEEFF" stroke="#F8F9FF"/>
<path d="M19.0794 12.1965L16.3434 18.8685L13.6074 12.1965H12.3594V20.5605H13.2114V13.3125L15.9234 19.8645H16.7634L19.4634 13.3365V20.5605H20.3274V12.1965H19.0794Z" fill="black"/>
</svg>
