<svg width="19" height="19" viewBox="0 0 19 19" fill="none" xmlns="http://www.w3.org/2000/svg">
<path d="M15.0417 3.1665H7.91666" stroke="#434279" stroke-width="2" stroke-linecap="round" stroke-linejoin="round"/>
<path d="M11.0833 15.8335H3.95834" stroke="#434279" stroke-width="2" stroke-linecap="round" stroke-linejoin="round"/>
<path d="M11.875 3.1665L7.125 15.8332" stroke="#434279" stroke-width="2" stroke-linecap="round" stroke-linejoin="round"/>
</svg>
