<svg width="22" height="22" viewBox="0 0 22 22" fill="none" xmlns="http://www.w3.org/2000/svg">
<path d="M1 2V15" stroke="#434279" stroke-width="2" stroke-linecap="round"/>
<path d="M10.6 2V15" stroke="#434279" stroke-width="2" stroke-linecap="round"/>
<path d="M1 8.5H10.6" stroke="#434279" stroke-width="2"/>
<path d="M18.712 10.932C19.3 11.0813 19.748 11.366 20.056 11.786C20.3733 12.1967 20.532 12.71 20.532 13.326C20.532 14.1753 20.2193 14.852 19.594 15.356C18.9687 15.86 18.124 16.112 17.06 16.112C16.4533 16.112 15.87 16.0187 15.31 15.832C14.75 15.6453 14.274 15.384 13.882 15.048C13.6673 14.8613 13.56 14.642 13.56 14.39C13.56 14.1847 13.616 14.012 13.728 13.872C13.8493 13.7227 13.9893 13.648 14.148 13.648C14.2413 13.648 14.3253 13.6667 14.4 13.704C14.4747 13.732 14.5773 13.7833 14.708 13.858C15.1 14.1193 15.4733 14.32 15.828 14.46C16.1827 14.6 16.57 14.67 16.99 14.67C17.606 14.67 18.0633 14.5487 18.362 14.306C18.6607 14.054 18.81 13.676 18.81 13.172C18.81 12.6773 18.6513 12.3133 18.334 12.08C18.026 11.8373 17.5453 11.716 16.892 11.716H16.094C15.8793 11.716 15.7113 11.646 15.59 11.506C15.478 11.3567 15.422 11.1887 15.422 11.002C15.422 10.806 15.478 10.638 15.59 10.498C15.7113 10.358 15.8793 10.288 16.094 10.288H16.654C17.9327 10.288 18.572 9.80733 18.572 8.846C18.572 8.398 18.4367 8.05267 18.166 7.81C17.8953 7.56733 17.522 7.446 17.046 7.446C16.3647 7.446 15.6367 7.71667 14.862 8.258C14.7313 8.33267 14.6287 8.38867 14.554 8.426C14.4793 8.454 14.3953 8.468 14.302 8.468C14.1433 8.468 14.0033 8.398 13.882 8.258C13.77 8.10867 13.714 7.93133 13.714 7.726C13.714 7.586 13.7373 7.46933 13.784 7.376C13.84 7.27333 13.924 7.17067 14.036 7.068C14.428 6.74133 14.8947 6.48467 15.436 6.298C15.9867 6.102 16.5467 6.004 17.116 6.004C18.0867 6.004 18.8567 6.242 19.426 6.718C20.0047 7.194 20.294 7.82867 20.294 8.622C20.2847 9.16333 20.14 9.63933 19.86 10.05C19.5893 10.4513 19.2067 10.7453 18.712 10.932Z" fill="#434279"/>
</svg>
