{
  "migIndex": 1,
  "data": [
    {
      "path": "src/assets/fonts/HKGrotesk-Bold.otf",
      "sha1": "07bdea13db7b5c9f365f07d8fea0631a809ebb5c"
    },
    {
      "path": "src/assets/fonts/HKGrotesk-ExtraBold.otf",
      "sha1": "3afd76bb50cad3cc119d5853ba7acd08099c3197"
    },
    {
      "path": "src/assets/fonts/HKGrotesk-Light.otf",
      "sha1": "a61ee41d14d40cf535857772e61485894a50d33b"
    },
    {
      "path": "src/assets/fonts/HKGrotesk-Medium.otf",
      "sha1": "5ceb1e909a04662400465af528b562dd63cd9ebf"
    },
    {
      "path": "src/assets/fonts/HKGrotesk-Regular.otf",
      "sha1": "cc12e7453eb674af5cc2c1a10047248520ce88f8"
    },
    {
      "path": "src/assets/fonts/HKGrotesk-SemiBold.otf",
      "sha1": "4f852e7012dfcabec3d32b6c3af3d6d04fc3bdf7"
    },
    {
      "path": "src/assets/fonts/HKGrotesk-Bold.otf",
      "sha1": "07bdea13db7b5c9f365f07d8fea0631a809ebb5c"
    },
    {
      "path": "src/assets/fonts/HKGrotesk-ExtraBold.otf",
      "sha1": "3afd76bb50cad3cc119d5853ba7acd08099c3197"
    },
    {
      "path": "src/assets/fonts/HKGrotesk-Light.otf",
      "sha1": "a61ee41d14d40cf535857772e61485894a50d33b"
    },
    {
      "path": "src/assets/fonts/HKGrotesk-Medium.otf",
      "sha1": "5ceb1e909a04662400465af528b562dd63cd9ebf"
    },
    {
      "path": "src/assets/fonts/HKGrotesk-Regular.otf",
      "sha1": "cc12e7453eb674af5cc2c1a10047248520ce88f8"
    },
    {
      "path": "src/assets/fonts/HKGrotesk-SemiBold.otf",
      "sha1": "4f852e7012dfcabec3d32b6c3af3d6d04fc3bdf7"
    }
  ]
}
